783,zoom-finance-prod/111806385195401230.csv
784,zoom-finance-prod/415834928153926700.DOCX
785,zoom-finance-prod/383069582812826400.DOCX
786,zoom-finance-prod/739584859292600700.pdf
788,zoom-finance-prod/257401439112068350.msg
790,zoom-finance-prod/404773919453037950.msg
791,zoom-finance-prod/390458242728938560.jpg
792,zoom-finance-prod/375552893739157400.jpg
793,zoom-finance-prod/150094116312045470.jpg
794,zoom-finance/839059328871343200.pdf
795,zoom-finance-prod/39739679251307340.pdf
796,zoom-finance-prod/876163315662515200.XLSX
797,zoom-finance-prod/678595502869258400.msg
798,zoom-finance-prod/197949677073316260.msg
799,zoom-finance-prod/49906057916841730.jpg
800,zoom-finance-prod/418129921805029400.xlsx
801,zoom-finance-prod/661978307476395500.docx
802,zoom-finance-prod/684134660414950300.pdf
803,zoom-finance-prod/531208259745013950.xlsx
804,zoom-finance-prod/502979689374934300.pdf
805,zoom-finance-prod/441526966398327600.pdf
806,zoom-finance-prod/95191533261496080.msg
808,zoom-finance-prod/668135588400167800.pdf
809,zoom-finance-prod/275102406534701800.docx
810,zoom-finance-prod/555580266557866600.jpg
811,zoom-finance-prod/54828720508814490.msg
812,zoom-finance-prod/20020641544493588.jpeg
813,zoom-finance-prod/844931704702319600.pdf
814,zoom-finance-prod/598675866555988700.docx
817,zoom-finance-prod/367308202001743000.pdf
818,zoom-finance-prod/805934892532670200.PDF
819,zoom-finance-prod/798997596970235300.pdf
820,zoom-finance-prod/892143201725433100.msg
821,zoom-finance-prod/595459109740825700.msg
822,zoom-finance-prod/796118373601739400.pdf
823,zoom-finance-prod/300468335184076100.docx
824,zoom-finance-prod/334299107114383000.csv
825,zoom-finance-prod/573269470466913660.docx
826,zoom-finance-prod/96611272623667070.msg
827,zoom-finance-prod/433131772082550700.xlsx
828,zoom-finance-prod/175393323079255100.pdf
829,zoom-finance-prod/861620343235563500.docx
830,zoom-finance-prod/11547356877081594.msg
831,zoom-finance-prod/603330114574517800.msg
832,zoom-finance-prod/836108001401083000.msg
833,zoom-finance-prod/766558633885930900.docx
834,zoom-finance-prod/612719946796318500.docx
835,zoom-finance-prod/740543564232823400.msg
838,zoom-finance-prod/875347914717200800.pdf
839,zoom-finance-prod/793002191194992800.docx
840,zoom-finance-prod/881505300268022100.jpg
842,zoom-finance-prod/835326023506962700.jpg
843,zoom-finance-prod/694146117781802000.pdf
844,zoom-finance-prod/241246965703803840.pdf
845,zoom-finance-prod/837737444610484600.msg
846,zoom-finance-prod/274483325757101920.pdf
847,zoom-finance-prod/777157947191198500.csv
848,zoom-finance-prod/259753987217971840.pdf
849,zoom-finance-prod/859879507417339900.jpg
851,zoom-finance-prod/126480129341305520.pdf
852,zoom-finance-prod/308240657751760000.pdf
853,zoom-finance-prod/221702350357093120.msg
854,zoom-finance-prod/42339089099057930.pdf
855,zoom-finance-prod/663410548122250600.jpg
856,zoom-finance-prod/321802334077478140.pdf
857,zoom-finance-prod/116723550834980510.pdf
858,zoom-finance-prod/650115235451927600.pdf
859,zoom-finance-prod/64596368539177896.pdf
860,zoom-finance-prod/663167746632736600.xlsx
861,zoom-finance-prod/389954507335617860.xlsx
862,zoom-finance-prod/730262289019719000.pdf
865,zoom-finance-prod/217047613161836350.pdf
866,zoom-finance-prod/539605773827891840.pdf
867,zoom-finance-prod/719575956781226200.docx
868,zoom-finance-prod/852242599726813700.msg
869,zoom-finance-prod/386921201170507260.pdf
870,zoom-finance-prod/255509321177220860.docx
871,zoom-finance-prod/39879034157731500.msg
872,zoom-finance-prod/466166111227929500.docx
873,zoom-finance-prod/256336002526280220.docx
874,zoom-finance-prod/640483274018453400.docx
875,zoom-finance/782941970529292000.pdf
876,zoom-finance-prod/119414881428090050.pdf
878,zoom-finance-prod/506844175135524160.msg
879,zoom-finance-prod/607728032414246800.pdf
880,zoom-finance-prod/892021035815473900.msg
881,zoom-finance-prod/148066743875632860.msg
883,zoom-finance-prod/246520414291174050.msg
884,zoom-finance-prod/613979129068670700.msg
885,zoom-finance-prod/466713332415644600.msg
886,zoom-finance/262152647204457600.pdf
887,zoom-finance-prod/210169746639758370.docx
888,zoom-finance-prod/355291021310293000.PDF
889,zoom-finance-prod/35781128461370736.xlsx
890,zoom-finance-prod/712422867795771800.msg
891,zoom-finance-prod/333331696337847040.pdf
894,zoom-finance-prod/887331608441425400.pdf
896,zoom-finance-prod/493151407671556030.pdf
897,zoom-finance-prod/842407931553525800.jpg
898,zoom-finance-prod/379740025432266050.pdf
899,zoom-finance-prod/127010698433963790.jpg
900,zoom-finance-prod/80242733356508220.msg
901,zoom-finance-prod/831289455269859100.png
903,zoom-finance-prod/694936218308935700.pdf
904,zoom-finance/431012321037114800.pdf
906,zoom-finance-prod/892959543190249200.msg
907,zoom-finance-prod/844383257081550200.msg
908,zoom-finance-prod/813109642082106600.pdf
909,zoom-finance-prod/574016403214196000.msg
910,zoom-finance-prod/491778202852606660.pdf
911,zoom-finance-prod/424836524360830140.pdf
912,zoom-finance-prod/119566343489019950.pdf
913,zoom-finance-prod/192532310630943900.pdf
915,zoom-finance-prod/248278592548532860.xlsx
916,zoom-finance-prod/576798381168909400.docx
917,zoom-finance-prod/851267625702969000.pdf
918,zoom-finance-prod/109059689680686610.msg
919,zoom-finance-prod/511315288288114200.pdf
920,zoom-finance-prod/663367415882628100.msg
921,zoom-finance-prod/608672459044297500.pdf
922,zoom-finance-prod/541950536933272300.pdf
924,zoom-finance-prod/831646008619766800.pdf
925,zoom-finance-prod/895997800635855700.msg
926,zoom-finance-prod/527506662259560600.msg
927,zoom-finance-prod/150635441916053380.PDF
928,zoom-finance-prod/521006276781356800.xlsx
929,zoom-finance-prod/296378652383368900.msg
930,zoom-finance-prod/203774463383458050.msg
931,zoom-finance-prod/420976049957602750.xlsx
932,zoom-finance-prod/631655080420053600.msg
933,zoom-finance-prod/125986172494004500.msg
934,zoom-finance-prod/357634377493996100.DOCX
935,zoom-finance-prod/191675054462575970.docx
936,zoom-finance-prod/578037673203147500.docx
937,zoom-finance-prod/551277087829594430.pdf
938,zoom-finance-prod/579800436654954900.msg
939,zoom-finance-prod/726096411515442700.msg
940,zoom-finance-prod/72186309155120200.pdf
941,zoom-finance-prod/416689880200339200.pdf
942,zoom-finance-prod/464142423766371700.JPG
943,zoom-finance-prod/163716307699706500.pdf
944,zoom-finance-prod/213960154907723070.pdf
945,zoom-finance-prod/585189808416205700.PDF
947,zoom-finance-prod/191790199647537760.doc
948,zoom-finance-prod/110959877204788700.pdf
949,zoom-finance-prod/460409701426603650.pdf
950,zoom-finance-prod/852016143962338800.msg
952,zoom-finance-prod/785804750994163300.pdf
953,zoom-finance-prod/844559818763400200.pdf
954,zoom-finance-prod/354122527460406900.xlsx
955,zoom-finance-prod/648337534025531800.pdf
956,zoom-finance-prod/865698239641078100.pdf
957,zoom-finance-prod/571396995084138600.pdf
959,zoom-finance-prod/541355587115428860.pdf
960,zoom-finance-prod/210634204963910460.pdf
961,zoom-finance-prod/214433744171067680.jpg
962,zoom-finance-prod/1443949901165786.pdf
963,zoom-finance-prod/129521849036754100.pdf
964,zoom-finance-prod/308114049346322200.pdf
965,zoom-finance-prod/44257867765363336.pdf
967,zoom-finance-prod/778930060611682400.docx
968,zoom-finance-prod/579859003788278100.pdf
970,zoom-finance-prod/426125060879646000.pdf
971,zoom-finance-prod/779240131930456000.PDF
972,zoom-finance-prod/783938442454728700.rtf
973,zoom-finance-prod/81792788250873630.pdf
974,zoom-finance/857202002700749800.msg
975,zoom-finance-prod/719172017889972000.msg
976,zoom-finance-prod/562853561246175400.pdf
977,zoom-finance-prod/119224260409959890.msg
978,zoom-finance-prod/498055345401443700.pdf
979,zoom-finance-prod/458574079013026940.pdf
980,zoom-finance-prod/516485192761116160.msg
981,zoom-finance-prod/697504551727748100.jpeg
982,zoom-finance-prod/415961496092173200.docx
984,zoom-finance/422124922083866700.msg
985,zoom-finance-prod/716947138451721900.docx
986,zoom-finance-prod/442627665804224640.pdf
987,zoom-finance-prod/479178298613783800.docx
988,zoom-finance/410173114977397060.pdf
989,zoom-finance-prod/499775155185844350.jpg
990,zoom-finance-prod/713441958218977400.pdf
991,zoom-finance/219989373400262850.xls
992,zoom-finance-prod/193440793416693630.pdf
993,zoom-finance-prod/520569303901917300.msg
994,zoom-finance-prod/653819733964303500.pdf
995,zoom-finance-prod/32187134184379840.pdf
996,zoom-finance-prod/452570188549117000.pdf
997,zoom-finance-prod/660010250271642400.pdf
998,zoom-finance-prod/800228301246292000.jpg
999,zoom-finance-prod/482399545720885100.pdf
1137,zoom-finance-prod/605890185314973000.msg
